Report
…
Create data frame

# create tibbles by combining vectors
evolution <-
  tibble(DatesFiles, sectors, regions, dealsize, revenues)
  
#convert as character variables to factors
evolution <-
  evolution %>%
  mutate_if(sapply(evolution, is.character), as.factor) %>% 
  print()

# A tibble: 400 × 5
   DatesFiles sectors regions dealsize revenues
   <date>     <fct>   <fct>      <int>    <dbl>
 1 2014-01-13 land    EMEA         180      200
 2 2014-02-10 ground  LATAM        293      164
 3 2014-03-17 space   EMEA         896      639
 4 2014-03-24 space   AUS          539      289
 5 2014-04-27 land    EMEA         713      573
 6 2014-05-07 radio   EMEA         211      761
 7 2014-05-17 space   EMEA         547      363
 8 2014-05-21 sea     EMEA         930      459
 9 2014-05-31 radio   APAC         703      126
10 2014-06-02 land    NAM          343      253
# ℹ 390 more rows
…
Heatmaps

Create data

Code

#get year, month, week
  weekcount <-
  evolution %>%
    mutate(year = year(DatesFiles), 
           month = month(DatesFiles, label = TRUE, abbr= TRUE), 
           wk = week(DatesFiles))
weekcount

# A tibble: 333 × 8
   DatesFiles sectors regions dealsize revenues  year month    wk
   <date>     <fct>   <fct>      <int>    <dbl> <dbl> <ord> <dbl>
 1 2015-01-08 radio   APAC         902      603  2015 Jan       2
 2 2015-01-09 sea     EMEA         928      429  2015 Jan       2
 3 2015-01-21 land    APAC         103      170  2015 Jan       3
 4 2015-02-17 land    AUS          957      246  2015 Feb       7
 5 2015-04-03 space   APAC         592      368  2015 Apr      14
 6 2015-04-18 land    EMEA         858     1074  2015 Apr      16
 7 2015-04-22 space   NAM          400      114  2015 Apr      16
 8 2015-04-25 radio   APAC           2      658  2015 Apr      17
 9 2015-05-31 space   EMEA         674      302  2015 May      22
10 2015-06-10 air     APAC          78      803  2015 Jun      23
# ℹ 323 more rows
…
